…
    ## 
    ## [[2]]
    ## # A tibble: 24 x 7
    ##    price   age stores metro trails dffits rowNum
    ##    <dbl> <dbl>  <dbl> <dbl>  <dbl>  <dbl> <chr> 
    ##  1 118.   10.8      1  253.  6813.  1.02  271   
    ##  2  78.3  37.2      9  187.  7714.  0.515 221   
    ##  3  78    35.4      9  319.  6674.  0.463 313   
    ##  4  63.3  41.4      8  281.  8349.  0.405 362   
    ##  5  73.6   0        6  293.  8174.  0.370 167   
    ##  6  61.5  35.9      3  641.  5812.  0.360 48    
    ##  7  67.7  40.9      8  122.  7284.  0.359 390   
    ##  8  45.1  16.4      0 3781.  4350.  0.352 149   
    ##  9  62.9  38.6      4  805.  6108.  0.348 127   
    ## 10  41.2  34.6      0 3085.  4662.  0.314 345   
    ## # i 14 more rows
…
    ## 
    ## [[2]]
    ## # A tibble: 27 x 7
    ##    price   age stores metro trails dffits rowNum
    ##    <dbl> <dbl>  <dbl> <dbl>  <dbl>  <dbl> <chr> 
    ##  1  78.3  37.2      9  187.  7714.  0.560 221   
    ##  2  78    35.4      9  319.  6674.  0.505 312   
    ##  3  63.3  41.4      8  281.  8349.  0.437 361   
    ##  4  73.6   0        6  293.  8174.  0.410 167   
    ##  5  61.5  35.9      3  641.  5812.  0.403 48    
    ##  6  67.7  40.9      8  122.  7284.  0.391 389   
    ##  7  45.1  16.4      0 3781.  4350.  0.387 149   
    ##  8  62.9  38.6      4  805.  6108.  0.386 127   
    ##  9  41.2  34.6      0 3085.  4662.  0.347 344   
    ## 10   7.6  14.8      6  393.  7504. -0.338 114   
    ## # i 17 more rows
…
